Travailler avec des NA • ecotools
…
Cependant, en règle générale, les valeurs manquantes sont révélatrice de la qualité du jeu de données utilisé. De plus, leur analyse n’est pas forcémment dénuée de sens et peut apporter des informations supplémentaires à l’étude.

Pour cet article, on se basera sur le dataset airquality, un jeu de données représentant les mesures de différents composants atmosphériques à différentes dates.

library(dplyr)
airquality <- tbl_df(airquality)
airquality

## # A tibble: 153 x 6
##    Ozone Solar.R  Wind  Temp Month   Day
##    <int>   <int> <dbl> <int> <int> <int>
##  1    41     190  7.40    67     5     1
##  2    36     118  8.00    72     5     2
##  3    12     149 12.6     74     5     3
##  4    18     313 11.5     62     5     4
##  5    NA      NA 14.3     56     5     5
##  6    28      NA 14.9     66     5     6
##  7    23     299  8.60    65     5     7
##  8    19      99 13.8     59     5     8
##  9     8      19 20.1     61     5     9
## 10    NA     194  8.60    69     5    10
## # ... with 143 more rows
…
Intéressant, il semblerait donc que les NA d’ozone se concentrent particulièrement sur les températures de 80°.

Bien d’autres fonctions super intéressantes existent dans les deux packages utilisés, je vous renvoie donc vers leurs vignettes pour aller plus loin.

L’imputation

Selon les jeux de données, un NA n’aura pas toujours la même signification. En écologie, par exemple, l’absence d’une espèce sur un site peut souvent être traduite en NA (case laissée vide par l’opérateur dans le tableur). Dans ce cas particulier, le NA peut être traduit en 0 sans que cela ne cause réellement de problème. Il reste cependant le risque que le NA ne soit pas une case vide mais plutôt une erreur de saisie ou une information perdue lors du transfert d’informations. En revanche, pour des données de température par exemple, un NA ne peut être traduit en “0°C”. Dans le cas où les lignes de NA sont en très faible effectif, la solution peut donc être ici de tout simplement retirer ces ligne à l’aide de na.omit.

Cependant, lorsque l’on jette un coup d’oeil à nos données

airquality

## # A tibble: 153 x 6
##    Ozone Solar.R  Wind  Temp Month   Day
##    <int>   <int> <dbl> <int> <int> <int>
##  1    41     190  7.40    67     5     1
##  2    36     118  8.00    72     5     2
##  3    12     149 12.6     74     5     3
##  4    18     313 11.5     62     5     4
##  5    NA      NA 14.3     56     5     5
##  6    28      NA 14.9     66     5     6
##  7    23     299  8.60    65     5     7
##  8    19      99 13.8     59     5     8
##  9     8      19 20.1     61     5     9
## 10    NA     194  8.60    69     5    10
## # ... with 143 more rows
…
## $ncp
## [1] 0
## 
## $criterion
##        0        1        2        3        4        5 
## 1520.506 1823.946 1771.702 2774.323 2888.306 6369.592

impute_air <- MIPCA(airquality,ncp=1) # Imputation

airquality2 <- tbl_df(impute_air$res.imputePCA)
airquality2

## # A tibble: 153 x 6
##    Ozone Solar.R  Wind  Temp Month   Day
##    <dbl>   <dbl> <dbl> <dbl> <dbl> <dbl>
##  1 41.0    190    7.40  67.0  5.00  1.00
##  2 36.0    118    8.00  72.0  5.00  2.00
##  3 12.0    149   12.6   74.0  5.00  3.00
##  4 18.0    313   11.5   62.0  5.00  4.00
##  5  7.23   137   14.3   56.0  5.00  5.00
##  6 28.0    153   14.9   66.0  5.00  6.00
##  7 23.0    299    8.60  65.0  5.00  7.00
##  8 19.0     99.0 13.8   59.0  5.00  8.00
##  9  8.00    19.0 20.1   61.0  5.00  9.00
## 10 31.4    194    8.60  69.0  5.00 10.0 
## # ... with 143 more rows
…
